…
``` r
# Import CSV for prices
(airbnb_price <- read_csv('airbnb_price.csv'))
```

    ## 
    ## -- Column specification --------------------------------------------------------
    ## cols(
    ##   listing_id = col_double(),
    ##   price = col_character(),
    ##   nbhood_full = col_character()
    ## )

    ## # A tibble: 25,209 x 3
    ##    listing_id price       nbhood_full               
    ##         <dbl> <chr>       <chr>                     
    ##  1       2595 225 dollars Manhattan, Midtown        
    ##  2       3831 89 dollars  Brooklyn, Clinton Hill    
    ##  3       5099 200 dollars Manhattan, Murray Hill    
    ##  4       5178 79 dollars  Manhattan, Hell's Kitchen 
    ##  5       5238 150 dollars Manhattan, Chinatown      
    ##  6       5295 135 dollars Manhattan, Upper West Side
    ##  7       5441 85 dollars  Manhattan, Hell's Kitchen 
    ##  8       5803 89 dollars  Brooklyn, South Slope     
    ##  9       6021 85 dollars  Manhattan, Upper West Side
    ## 10       6848 140 dollars Brooklyn, Williamsburg    
    ## # ... with 25,199 more rows
…
``` r
is.numeric(airbnb_price$price)
```

    ## [1] FALSE

``` r
# create a new column which price are in numeric
airbnb_price <- airbnb_price %>% 
  mutate(price_dollars = as.numeric(str_remove(airbnb_price$price, " dollars")))
airbnb_price
```

    ## # A tibble: 25,209 x 4
    ##    listing_id price       nbhood_full                price_dollars
    ##         <dbl> <chr>       <chr>                              <dbl>
    ##  1       2595 225 dollars Manhattan, Midtown                   225
    ##  2       3831 89 dollars  Brooklyn, Clinton Hill                89
    ##  3       5099 200 dollars Manhattan, Murray Hill               200
    ##  4       5178 79 dollars  Manhattan, Hell's Kitchen             79
    ##  5       5238 150 dollars Manhattan, Chinatown                 150
    ##  6       5295 135 dollars Manhattan, Upper West Side           135
    ##  7       5441 85 dollars  Manhattan, Hell's Kitchen             85
    ##  8       5803 89 dollars  Brooklyn, South Slope                 89
    ##  9       6021 85 dollars  Manhattan, Upper West Side            85
    ## 10       6848 140 dollars Brooklyn, Williamsburg               140
    ## # ... with 25,199 more rows
…
