…
    ## Warning: package 'tidyr' was built under R version 4.0.5

    ## Warning: package 'readr' was built under R version 4.0.5

    ## Warning: package 'dplyr' was built under R version 4.0.5

    ## -- Conflicts ------------------------------------------ tidyverse_conflicts() --
    ## x dplyr::filter() masks stats::filter()
    ## x dplyr::lag()    masks stats::lag()

``` r
riskfactors
```

    ## # A tibble: 245 x 34
    ##    state sex      age weight_lbs height_inch   bmi marital     pregnant children
    ##    <fct> <fct>  <int>      <int>       <int> <dbl> <fct>       <fct>       <int>
    ##  1 26    Female    49        190          64  32.7 Married     <NA>            0
    ##  2 40    Female    48        170          68  25.9 Divorced    <NA>            0
    ##  3 72    Female    55        163          64  28.0 Married     <NA>            0
    ##  4 42    Male      42        230          74  29.6 Married     <NA>            1
    ##  5 32    Female    66        135          62  24.7 Widowed     <NA>            0
    ##  6 19    Male      66        165          70  23.7 Married     <NA>            0
    ##  7 45    Male      37        150          68  22.9 Married     <NA>            3
    ##  8 56    Female    62        170          70  24.4 NeverMarri~ <NA>            0
    ##  9 18    Male      38        146          70  21.0 Married     <NA>            2
    ## 10 8     Female    42        260          73  34.4 Separated   No              3
    ## # ... with 235 more rows, and 25 more variables: education <fct>,
    ## #   employment <fct>, income <fct>, veteran <fct>, hispanic <fct>,
    ## #   health_general <fct>, health_physical <int>, health_mental <int>,
    ## #   health_poor <int>, health_cover <fct>, provide_care <fct>,
    ## #   activity_limited <fct>, drink_any <fct>, drink_days <int>,
    ## #   drink_average <int>, smoke_100 <fct>, smoke_days <fct>, smoke_stop <fct>,
    ## #   smoke_last <fct>, diet_fruit <int>, diet_salad <int>, diet_potato <int>,
    ## #   diet_carrot <int>, diet_vegetable <int>, diet_juice <int>
…
``` r
# how much is the missing data?
sum(is.na(riskfactors))
```

    ## [1] 1186

``` r
# wow

# Summarize missingness in each variable of the `riskfactors` dataset
miss_var_summary(riskfactors)
```

    ## # A tibble: 34 x 3
    ##    variable      n_miss pct_miss
    ##    <chr>          <int>    <dbl>
    ##  1 pregnant         215    87.8 
    ##  2 smoke_stop       212    86.5 
    ##  3 smoke_last       161    65.7 
    ##  4 drink_average    135    55.1 
    ##  5 drink_days       134    54.7 
    ##  6 smoke_days       128    52.2 
    ##  7 health_poor      113    46.1 
    ##  8 bmi               11     4.49
    ##  9 weight_lbs        10     4.08
    ## 10 diet_fruit         8     3.27
    ## # ... with 24 more rows

``` r
# Summarize missingness in each case of the `riskfactors` dataset
miss_case_summary(riskfactors)
```

    ## # A tibble: 245 x 3
    ##     case n_miss pct_miss
    ##    <int>  <int>    <dbl>
    ##  1    91     15     44.1
    ##  2   133     15     44.1
    ##  3     4     12     35.3
    ##  4    49     12     35.3
    ##  5   185     12     35.3
    ##  6    10     11     32.4
    ##  7   231     10     29.4
    ##  8    14      9     26.5
    ##  9    61      8     23.5
    ## 10    80      8     23.5
    ## # ... with 235 more rows
…
``` r
# Return the summary of missingness in each variable, 
# grouped by sex, in the `riskfactors` dataset
riskfactors %>% 
  group_by(sex) %>% 
  miss_var_summary()
```

    ## # A tibble: 66 x 4
    ## # Groups:   sex [2]
    ##    sex    variable      n_miss pct_miss
    ##    <fct>  <chr>          <int>    <dbl>
    ##  1 Female smoke_stop       136    88.9 
    ##  2 Female pregnant         123    80.4 
    ##  3 Female smoke_last       106    69.3 
    ##  4 Female drink_days       102    66.7 
    ##  5 Female drink_average    102    66.7 
    ##  6 Female smoke_days        89    58.2 
    ##  7 Female health_poor       59    38.6 
    ##  8 Female bmi               10     6.54
    ##  9 Female weight_lbs         9     5.88
    ## 10 Female diet_fruit         7     4.58
    ## # ... with 56 more rows

``` r
# Return the summary of missingness in each case, 
# grouped by sex, in the `riskfactors` dataset
riskfactors %>% 
  group_by(sex) %>% 
  miss_case_summary()
```

    ## # A tibble: 245 x 4
    ## # Groups:   sex [2]
    ##    sex     case n_miss pct_miss
    ##    <fct>  <int>  <int>    <dbl>
    ##  1 Female    58     15     45.5
    ##  2 Female    80     15     45.5
    ##  3 Female    29     12     36.4
    ##  4 Female   115     12     36.4
    ##  5 Female     6     11     33.3
    ##  6 Female   145     10     30.3
    ##  7 Female     8      9     27.3
    ##  8 Female    38      8     24.2
    ##  9 Female    53      8     24.2
    ## 10 Female    83      8     24.2
    ## # ... with 235 more rows
…
``` r
# Tabulate the missingness in each variable, grouped by sex, in the `riskfactors` dataset
riskfactors %>% group_by(sex) %>% miss_var_table()
```

    ## # A tibble: 23 x 4
    ## # Groups:   sex [2]
    ##    sex    n_miss_in_var n_vars pct_vars
    ##    <fct>          <int>  <int>    <dbl>
    ##  1 Female             0      9    27.3 
    ##  2 Female             1      4    12.1 
    ##  3 Female             2      4    12.1 
    ##  4 Female             3      1     3.03
    ##  5 Female             7      6    18.2 
    ##  6 Female             9      1     3.03
    ##  7 Female            10      1     3.03
    ##  8 Female            59      1     3.03
    ##  9 Female            89      1     3.03
    ## 10 Female           102      2     6.06
    ## # ... with 13 more rows
…
``` r
# Calculate the summaries for each run of missingness for the variable, health_poor
miss_var_run(riskfactors, var = health_poor)
```

    ## # A tibble: 126 x 2
    ##    run_length is_na   
    ##         <int> <chr>   
    ##  1          2 complete
    ##  2          5 missing 
    ##  3          3 complete
    ##  4          1 missing 
    ##  5          2 complete
    ##  6          1 missing 
    ##  7          3 complete
    ##  8          1 missing 
    ##  9          1 complete
    ## 10          1 missing 
    ## # ... with 116 more rows
…
``` r
# For each `sex` variable, calculate the run of missingness for health_poor
riskfactors %>% 
  group_by(sex) %>% 
  miss_var_run(var = health_poor)
```

    ## # A tibble: 128 x 3
    ## # Groups:   sex [2]
    ##    sex    run_length is_na   
    ##    <fct>       <int> <chr>   
    ##  1 Female          2 complete
    ##  2 Female          2 missing 
    ##  3 Female          3 complete
    ##  4 Female          1 missing 
    ##  5 Female          7 complete
    ##  6 Female          1 missing 
    ##  7 Female          1 complete
    ##  8 Female          1 missing 
    ##  9 Female          1 complete
    ## 10 Female          1 missing 
    ## # ... with 118 more rows
…
more than half male data for ‘health\_poor’ are incomplete,

``` r
# Explore the strange missing values "N/A"
miss_scan_count(data = riskfactors, search = list("N/A"))
```

    ## # A tibble: 34 x 2
    ##    Variable        n
    ##    <chr>       <int>
    ##  1 state           0
    ##  2 sex             0
    ##  3 age             0
    ##  4 weight_lbs      0
    ##  5 height_inch     0
    ##  6 bmi             0
    ##  7 marital         0
    ##  8 pregnant        0
    ##  9 children        0
    ## 10 education       0
    ## # ... with 24 more rows

``` r
# Explore the strange missing values "missing"
miss_scan_count(data = riskfactors, search = list("missing"))
```

    ## # A tibble: 34 x 2
    ##    Variable        n
    ##    <chr>       <int>
    ##  1 state           0
    ##  2 sex             0
    ##  3 age             0
    ##  4 weight_lbs      0
    ##  5 height_inch     0
    ##  6 bmi             0
    ##  7 marital         0
    ##  8 pregnant        0
    ##  9 children        0
    ## 10 education       0
    ## # ... with 24 more rows

``` r
# Explore the strange missing values "na"
miss_scan_count(data = riskfactors, search = list("na"))
```

    ## # A tibble: 34 x 2
    ##    Variable        n
    ##    <chr>       <int>
    ##  1 state           0
    ##  2 sex             0
    ##  3 age             0
    ##  4 weight_lbs      0
    ##  5 height_inch     0
    ##  6 bmi             0
    ##  7 marital         0
    ##  8 pregnant        0
    ##  9 children        0
    ## 10 education       0
    ## # ... with 24 more rows

``` r
# Explore the strange missing values " " (a single space)
miss_scan_count(data = riskfactors, search = list(" "))
```

    ## # A tibble: 34 x 2
    ##    Variable        n
    ##    <chr>       <int>
    ##  1 state           0
    ##  2 sex             0
    ##  3 age             0
    ##  4 weight_lbs      0
    ##  5 height_inch     0
    ##  6 bmi             0
    ##  7 marital         0
    ##  8 pregnant        0
    ##  9 children        0
    ## 10 education       0
    ## # ... with 24 more rows

``` r
# Explore all of the strange missing values, "N/A", "missing", "na", " "
miss_scan_count(data = riskfactors, search = list("N/A", "missing","na", " "))
```

    ## # A tibble: 34 x 2
    ##    Variable        n
    ##    <chr>       <int>
    ##  1 state           0
    ##  2 sex             0
    ##  3 age             0
    ##  4 weight_lbs      0
    ##  5 height_inch     0
    ##  6 bmi             0
    ##  7 marital         0
    ##  8 pregnant        0
    ##  9 children        0
    ## 10 education       0
    ## # ... with 24 more rows
…
